// Jest Snapshot v1, https://goo.gl/fbAQLP

exports[`Render Instance Pages Charity Instance 2 1`] = `ShallowWrapper {}`;

exports[`Render Instance Pages Event Instance 2 1`] = `ShallowWrapper {}`;

exports[`Render Instance Pages Location Instance 2 1`] = `ShallowWrapper {}`;

exports[`Render Main Pages About 2 1`] = `ShallowWrapper {}`;

exports[`Render Main Pages Charities 2 1`] = `ShallowWrapper {}`;

exports[`Render Main Pages Events 2 1`] = `ShallowWrapper {}`;

exports[`Render Main Pages Locations 2 1`] = `ShallowWrapper {}`;
